^C:\USERS\LASSA\SOURCE\REPOS\HOMEWORK 18.5\X64\DEBUG\HOMEWORK 18.5.OBJ
C:\USERS\LASSA\SOURCE\REPOS\HOMEWORK 18.5\X64\DEBUG\HOMEWORK 18.5.EXE
C:\USERS\LASSA\SOURCE\REPOS\HOMEWORK 18.5\X64\DEBUG\HOMEWORK 18.5.ILK
C:\USERS\LASSA\SOURCE\REPOS\HOMEWORK 18.5\X64\DEBUG\HOMEWORK 18.5.PDB
